<?xml version="1.0" standalone="no"?>
<!DOCTYPE svg PUBLIC "-//W3C//DTD SVG 1.1//EN" "http://www.w3.org/Graphics/SVG/1.1/DTD/svg11.dtd" >
<svg xmlns="http://www.w3.org/2000/svg">
<metadata>Generated by IcoMoon</metadata>
<defs>
<font id="icomoon" horiz-adv-x="1024">
<font-face units-per-em="1024" ascent="960" descent="-64" />
<missing-glyph horiz-adv-x="1024" />
<glyph unicode="&#x20;" horiz-adv-x="512" d="" />
<glyph unicode="&#xe002;" glyph-name="mail" d="M170.667 810.667h682.667q53 0 90.5-37.5t37.5-90.5v-512q0-53-37.5-90.5t-90.5-37.5h-682.667q-53 0-90.5 37.5t-37.5 90.5v512q0 53 37.5 90.5t90.5 37.5zM896 170.667v466l-357.333-286q-11.333-9.333-26.667-9.333t-26.667 9.333l-357.333 286v-466q0-17.667 12.5-30.167t30.167-12.5h682.667q17.667 0 30.167 12.5t12.5 30.167zM853.333 725.334h-682.667q-6.333 0-14-2.333l355.333-284.333 355.333 284.333q-7.667 2.333-14 2.333z" />
<glyph unicode="&#xe006;" glyph-name="bell" d="M512 896q55 0 104-17.833t87-49.167 68.333-74.5 50.5-93.333 31.5-106.5q33.667-169 71.5-267.167t99.167-159.5h-391.333q7.333-21 7.333-42.667 0-53-37.5-90.5t-90.5-37.5-90.5 37.5-37.5 90.5q0 21.667 7.333 42.667h-391.333q61.333 61.333 99.167 159.5t71.5 267.167q11.333 56.333 31.5 106.5t50.5 93.333 68.333 74.5 87 49.167 104 17.833zM512 128q-17.667 0-30.167-12.5t-12.5-30.167 12.5-30.167 30.167-12.5 30.167 12.5 12.5 30.167-12.5 30.167-30.167 12.5zM512 810.667q-38.667 0-72.833-12t-58.5-30.667-45.167-44.833-33.833-50.833-23.5-52.667-15.5-46.167-8.333-35.5q-42.667-215-94-324.667h703.333q-51.333 109.667-94 324.667-3.333 17.333-8.333 35.5t-15.5 46.167-23.5 52.667-33.833 50.833-45.167 44.833-58.5 30.667-72.833 12z" />
<glyph unicode="&#xe009;" glyph-name="ribbon" d="M298.667 896h426.667q53 0 90.5-37.5t37.5-90.5v-810.667l-341.333 256-341.333-256v810.667q0 53 37.5 90.5t90.5 37.5zM725.333 810.667h-426.667q-17.667 0-30.167-12.5t-12.5-30.167v-640l256 192 256-192v640q0 17.667-12.5 30.167t-30.167 12.5z" />
<glyph unicode="&#xe010;" glyph-name="image" d="M170.667 896h682.667q53 0 90.5-37.5t37.5-90.5v-682.667q0-53-37.5-90.5t-90.5-37.5h-682.667q-53 0-90.5 37.5t-37.5 90.5v682.667q0 53 37.5 90.5t90.5 37.5zM896 195.667l-213.333 213.333-366.333-366.333h537q17.667 0 30.167 12.5t12.5 30.167v110.333zM853.333 810.667h-682.667q-17.667 0-30.167-12.5t-12.5-30.167v-682.667q0-17.667 12.5-30.167t30.167-12.5h25l487 487 213.333-213.333v451.667q0 17.667-12.5 30.167t-30.167 12.5zM341.333 725.334q53 0 90.5-37.5t37.5-90.5-37.5-90.5-90.5-37.5-90.5 37.5-37.5 90.5 37.5 90.5 90.5 37.5zM341.333 640q-17.667 0-30.167-12.5t-12.5-30.167 12.5-30.167 30.167-12.5 30.167 12.5 12.5 30.167-12.5 30.167-30.167 12.5z" />
<glyph unicode="&#xe017;" glyph-name="camera" d="M341.333 853.334h341.333l85.333-128h128q53 0 90.5-38.167t37.5-91.167v-468.667q0-53-37.5-90.167t-90.5-37.167h-768q-53 0-90.5 37.5t-37.5 90.5v468.667q0 53 37.5 90.833t90.5 37.833h128zM512 597.334q43.333 0 82.833-17t68-45.5 45.5-68 17-82.833-17-82.833-45.5-68-68-45.5-82.833-17-82.833 17-68 45.5-45.5 68-17 82.833 17 82.833 45.5 68 68 45.5 82.833 17zM512 512q-53 0-90.5-37.5t-37.5-90.5 37.5-90.5 90.5-37.5 90.5 37.5 37.5 90.5-37.5 90.5-90.5 37.5zM722.333 640l-83.667 128h-251.667l-85.333-128h-173.667q-17.667 0-30.167-12.667t-12.5-30.667v-468.667q0-17.667 12.5-30.167t30.167-12.5h768q18 0 30.333 12.167t12.333 29.833v468.667q0 18-12.667 31t-30 13h-173.667z" />
<glyph unicode="&#xe024;" glyph-name="heart" d="M753.333 853.334q69.667 0 128.5-34.333t93.167-93.167 34.333-128.5q0-50-19.167-97.167t-55.833-83.833l-422.333-422.333-422.333 422.333q-36.667 36.667-55.833 83.833t-19.167 97.167q0 69.667 34.333 128.5t93.167 93.167 128.5 34.333q50.333 0 97.167-19t83.833-56l60.333-60.333 60.333 60.333q36.667 36.667 83.833 55.833t97.167 19.167zM753.333 768q-33.333 0-64.667-12.667t-56-37.333l-120.667-120.667-120.667 120.667q-24.667 24.667-56 37.333t-64.667 12.667q-46.667 0-85.833-22.833t-62-62-22.833-85.833q0-33.333 12.667-64.667t37.333-56l362-362 362 362q24.667 24.667 37.333 56t12.667 64.667q0 46.667-22.833 85.833t-62 62-85.833 22.833z" />
<glyph unicode="&#xe036;" glyph-name="search" d="M426.667 896q78 0 149.167-30.5t122.5-81.833 81.833-122.5 30.5-149.167q0-67-21.833-128.333t-62.167-111.333l242.333-242q12.333-12.333 12.333-30.333 0-18.333-12.167-30.5t-30.5-12.167q-18 0-30.333 12.333l-242 242.333q-50-40.333-111.333-62.167t-128.333-21.833q-78 0-149.167 30.5t-122.5 81.833-81.833 122.5-30.5 149.167 30.5 149.167 81.833 122.5 122.5 81.833 149.167 30.5zM426.667 810.667q-60.667 0-116-23.667t-95.333-63.667-63.667-95.333-23.667-116 23.667-116 63.667-95.333 95.333-63.667 116-23.667 116 23.667 95.333 63.667 63.667 95.333 23.667 116-23.667 116-63.667 95.333-95.333 63.667-116 23.667z" />
<glyph unicode="&#xe037;" glyph-name="zoom-in" d="M426.667 896q78 0 149.167-30.5t122.5-81.833 81.833-122.5 30.5-149.167q0-67-21.833-128.333t-62.167-111.333l242.333-242q12.333-12.333 12.333-30.333 0-18.333-12.167-30.5t-30.5-12.167q-18 0-30.333 12.333l-242 242.333q-50-40.333-111.333-62.167t-128.333-21.833q-78 0-149.167 30.5t-122.5 81.833-81.833 122.5-30.5 149.167 30.5 149.167 81.833 122.5 122.5 81.833 149.167 30.5zM426.667 810.667q-60.667 0-116-23.667t-95.333-63.667-63.667-95.333-23.667-116 23.667-116 63.667-95.333 95.333-63.667 116-23.667 116 23.667 95.333 63.667 63.667 95.333 23.667 116-23.667 116-63.667 95.333-95.333 63.667-116 23.667zM426.667 682.667q17.667 0 30.167-12.5t12.5-30.167v-85.333h85.333q17.667 0 30.167-12.5t12.5-30.167-12.5-30.167-30.167-12.5h-85.333v-85.333q0-17.667-12.5-30.167t-30.167-12.5-30.167 12.5-12.5 30.167v85.333h-85.333q-17.667 0-30.167 12.5t-12.5 30.167 12.5 30.167 30.167 12.5h85.333v85.333q0 17.667 12.5 30.167t30.167 12.5z" />
<glyph unicode="&#xe038;" glyph-name="zoom-out" d="M426.667 896q78 0 149.167-30.5t122.5-81.833 81.833-122.5 30.5-149.167q0-67-21.833-128.333t-62.167-111.333l242.333-242q12.333-12.333 12.333-30.333 0-18.333-12.167-30.5t-30.5-12.167q-18 0-30.333 12.333l-242 242.333q-50-40.333-111.333-62.167t-128.333-21.833q-78 0-149.167 30.5t-122.5 81.833-81.833 122.5-30.5 149.167 30.5 149.167 81.833 122.5 122.5 81.833 149.167 30.5zM426.667 810.667q-60.667 0-116-23.667t-95.333-63.667-63.667-95.333-23.667-116 23.667-116 63.667-95.333 95.333-63.667 116-23.667 116 23.667 95.333 63.667 63.667 95.333 23.667 116-23.667 116-63.667 95.333-95.333 63.667-116 23.667zM298.667 554.667h256q17.667 0 30.167-12.5t12.5-30.167-12.5-30.167-30.167-12.5h-256q-17.667 0-30.167 12.5t-12.5 30.167 12.5 30.167 30.167 12.5z" />
<glyph unicode="&#xe074;" glyph-name="head" d="M512 938.667q69.667 0 128.5-34.333t93.167-93.167 34.333-128.5v-128q0-53.333-20.667-101t-57.667-83q97.333-15.333 173-45.167t118.5-70.5 42.833-85.667v-84q0-53-37.5-90.5t-90.5-37.5h-768q-53 0-90.5 37.5t-37.5 90.5v84.333q0 45 42.833 85.667t118.333 70.5 172.833 44.833q-36.667 35.667-57.333 83.167t-20.667 100.833v128q0 69.667 34.333 128.5t93.167 93.167 128.5 34.333zM512 298.667q-92.667 0-178.833-14.833t-150.167-41.5q-25.667-10.667-45.833-22.667t-30.667-21.667-15.833-16.833-5.333-11.5v-84.333q0-17.667 12.5-30.167t30.167-12.5h768q17.667 0 30.167 12.5t12.5 30.167v84q0 4.333-5.333 11.5t-15.833 16.833-30.667 21.667-45.833 23q-64 26.667-150.167 41.5t-178.833 14.833zM512 853.334q-70.667 0-120.667-50t-50-120.667v-128q0-70.667 50-120.667t120.667-50 120.667 50 50 120.667v128q0 70.667-50 120.667t-120.667 50z" />
<glyph unicode="&#xe075;" glyph-name="briefcase" d="M426.667 853.334h170.667q53 0 90.5-37.5t37.5-90.5v-42.667h128q53 0 90.5-37.5t37.5-90.5v-426.667q0-53-37.5-90.5t-90.5-37.5h-682.667q-53 0-90.5 37.5t-37.5 90.5v426.667q0 53 37.5 90.5t90.5 37.5h128v42.667q0 53 37.5 90.5t90.5 37.5zM213.333 85.334v512h-42.667q-17.667 0-30.167-12.5t-12.5-30.167v-426.667q0-17.667 12.5-30.167t30.167-12.5h42.667zM725.333 85.334v512h-426.667v-512h426.667zM853.333 597.334h-42.667v-512h42.667q17.667 0 30.167 12.5t12.5 30.167v426.667q0 17.667-12.5 30.167t-30.167 12.5zM597.333 768h-170.667q-17.667 0-30.167-12.5t-12.5-30.167v-42.667h256v42.667q0 17.667-12.5 30.167t-30.167 12.5z" />
<glyph unicode="&#xe076;" glyph-name="speech-bubble" d="M170.667 896h682.667q53 0 90.5-37.5t37.5-90.5v-469.333q0-53-37.5-90.5t-90.5-37.5h-341.333l-298.667-213.333v213.333h-42.667q-53 0-90.5 37.5t-37.5 90.5v469.333q0 53 37.5 90.5t90.5 37.5zM853.333 810.667h-682.667q-17.667 0-30.167-12.5t-12.5-30.167v-469.333q0-17.667 12.5-30.167t30.167-12.5h128v-133l186 133h368.667q17.667 0 30.167 12.5t12.5 30.167v469.333q0 17.667-12.5 30.167t-30.167 12.5z" />
<glyph unicode="&#xe085;" glyph-name="tag" d="M42.667 896h482.667l418.667-418.333q37.333-37.333 37.333-90.333 0-53.333-37.333-90.667l-302-302q-37.333-37.333-90.333-37.333-53.333 0-90.667 37.333l-418.333 418.667v482.667zM883.667 417.334l-393.667 393.333h-362v-362l393.333-393.667q12.667-12.333 30.333-12.333t30 12.333l302 302q12.333 12.333 12.333 30t-12.333 30.333zM362.667 682.667q44.333 0 75.5-31.167t31.167-75.5-31.167-75.5-75.5-31.167-75.5 31.167-31.167 75.5 31.167 75.5 75.5 31.167zM362.667 597.334q-8.667 0-15-6.333t-6.333-15 6.333-15 15-6.333 15 6.333 6.333 15-6.333 15-15 6.333z" />
<glyph unicode="&#xe094;" glyph-name="arrow-left" d="M426.667 768q17.667 0 30.167-12.5t12.5-30.167q0-18-12.667-30.333l-225.667-225.667h665q17.667 0 30.167-12.5t12.5-30.167-12.5-30.167-30.167-12.5h-665l225.667-225.667q12.667-12.333 12.667-30.333 0-17.667-12.5-30.167t-30.167-12.5q-18 0-30.333 12.333l-298.667 298.667q-12.333 13-12.333 30.333t12.333 30.333l298.667 298.667q12.667 12.333 30.333 12.333z" />
<glyph unicode="&#xe095;" glyph-name="arrow-right" d="M597.333 768q18 0 30.333-12.333l298.667-298.667q12.333-12.333 12.333-30.333t-12.333-30.333l-298.667-298.667q-12.333-12.333-30.333-12.333-18.333 0-30.5 12.167t-12.167 30.5q0 18 12.333 30.333l226 225.667h-665q-17.667 0-30.167 12.5t-12.5 30.167 12.5 30.167 30.167 12.5h665l-226 225.667q-12.333 12.333-12.333 30.333 0 18.333 12.167 30.5t30.5 12.167z" />
<glyph unicode="&#xe096;" glyph-name="arrow-up" d="M512 853.334q18 0 30.333-12.333l298.667-298.667q12.333-12.333 12.333-30.333 0-18.333-12.167-30.5t-30.5-12.167q-18 0-30.333 12.333l-225.667 226v-665q0-17.667-12.5-30.167t-30.167-12.5-30.167 12.5-12.5 30.167v665l-225.667-226q-12.333-12.333-30.333-12.333-18.333 0-30.5 12.167t-12.167 30.5q0 18 12.333 30.333l298.667 298.667q12.333 12.333 30.333 12.333z" />
<glyph unicode="&#xe097;" glyph-name="arrow-down" d="M512 853.334q17.667 0 30.167-12.5t12.5-30.167v-665l225.667 226q12.333 12.333 30.333 12.333 18.333 0 30.5-12.167t12.167-30.5q0-18-12.333-30.333l-298.667-298.667q-12.333-12.333-30.333-12.333t-30.333 12.333l-298.667 298.667q-12.333 12.333-12.333 30.333 0 18.333 12.167 30.5t30.5 12.167q18 0 30.333-12.333l225.667-226v665q0 17.667 12.5 30.167t30.167 12.5z" />
<glyph unicode="&#xe104;" glyph-name="columns" d="M128 810.667h768q53 0 90.5-37.5t37.5-90.5v-512q0-53-37.5-90.5t-90.5-37.5h-768q-53 0-90.5 37.5t-37.5 90.5v512q0 53 37.5 90.5t90.5 37.5zM298.667 128v597.333h-170.667q-17.667 0-30.167-12.5t-12.5-30.167v-512q0-17.667 12.5-30.167t30.167-12.5h170.667zM640 128v597.333h-256v-597.333h256zM896 725.334h-170.667v-597.333h170.667q17.667 0 30.167 12.5t12.5 30.167v512q0 17.667-12.5 30.167t-30.167 12.5z" />
<glyph unicode="&#xe106;" glyph-name="bag" d="M512 938.667q43.333 0 82.833-17t68-45.5 45.5-68 17-82.833v-42.667h170.667v-640q0-53-37.5-90.5t-90.5-37.5h-512q-53 0-90.5 37.5t-37.5 90.5v640h170.667v42.667q0 43.333 17 82.833t45.5 68 68 45.5 82.833 17zM810.667 42.667v554.667h-597.333v-554.667q0-17.667 12.5-30.167t30.167-12.5h512q17.667 0 30.167 12.5t12.5 30.167zM512 853.334q-53 0-90.5-37.5t-37.5-90.5v-42.667h256v42.667q0 53-37.5 90.5t-90.5 37.5z" />
<glyph unicode="&#xe112;" glyph-name="maximize" d="M597.333 384.334q17.667 0 30.333-12.667l268.333-268.333v195.667q0 17.667 12.5 30.167t30.167 12.5 30.167-12.5 12.5-30.167v-298.667q0-17.667-12.667-30.333t-30.333-12.667h-298.667q-17.667 0-30.167 12.5t-12.5 30.167 12.5 30.167 30.167 12.5h195.667l-268.333 268.333q-12.333 13-12.333 30.333 0 17.667 12.5 30.333t30.167 12.667zM85.333 896h298.667q17.667 0 30.167-12.5t12.5-30.167-12.5-30.167-30.167-12.5h-195.667l268.333-268q12.667-12.667 12.667-30.333t-12.667-30.167-30.333-12.5q-17 0-30.333 12.333l-268 268.333v-195.667q0-17.667-12.5-30.167t-30.167-12.5-30.167 12.5-12.5 30.167v298.667q0 17.667 12.5 30.167t30.167 12.5z" />
<glyph unicode="&#xe113;" glyph-name="minimize" d="M85.333 896q18 0 30.333-12.333l268.333-268.333v195.667q0 17.667 12.5 30.167t30.167 12.5 30.167-12.5 12.5-30.167v-298.667q0-17.667-12.667-30.333t-30.333-12.667h-298.667q-17.667 0-30.167 12.5t-12.5 30.167 12.5 30.167 30.167 12.5h195.667l-268.333 268.333q-12.333 12.333-12.333 30.333 0 18.333 12.167 30.5t30.5 12.167zM597.667 384h298.667q17.667 0 30.167-12.5t12.5-30.167-12.5-30.167-30.167-12.5h-195.667l268-268.333q12.667-12.667 12.667-30.333t-12.5-30.167-30.167-12.5q-18 0-30.333 12.333l-268.333 268.333v-195.667q0-17.667-12.5-30.167t-30.167-12.5-30.167 12.5-12.5 30.167v298.667q0 17.667 12.667 30.333t30.333 12.667z" />
<glyph unicode="&#xe114;" glyph-name="plus" d="M512 853.334q17.667 0 30.167-12.5t12.5-30.167v-341.333h341.333q17.667 0 30.167-12.5t12.5-30.167-12.5-30.167-30.167-12.5h-341.333v-341.333q0-17.667-12.5-30.167t-30.167-12.5-30.167 12.5-12.5 30.167v341.333h-341.333q-17.667 0-30.167 12.5t-12.5 30.167 12.5 30.167 30.167 12.5h341.333v341.333q0 17.667 12.5 30.167t30.167 12.5z" />
<glyph unicode="&#xe115;" glyph-name="minus" d="M128 469.334h768q17.667 0 30.167-12.5t12.5-30.167-12.5-30.167-30.167-12.5h-768q-17.667 0-30.167 12.5t-12.5 30.167 12.5 30.167 30.167 12.5z" />
<glyph unicode="&#xe116;" glyph-name="check" d="M896 725.334q18.333 0 30.5-12.167t12.167-30.5q0-18-12.333-30.333l-512-512q-12.333-12.333-30.333-12.333t-30.333 12.333l-256 256q-12.333 12.333-12.333 30.333 0 18.333 12.167 30.5t30.5 12.167q18 0 30.333-12.333l225.667-226 481.667 482q12.333 12.333 30.333 12.333z" />
<glyph unicode="&#xe117;" glyph-name="cross" d="M810.667 768q18.333 0 30.5-12.167t12.167-30.5q0-18-12.333-30.333l-268.667-268.333 268.667-268.333q12.333-12.333 12.333-30.333 0-18.333-12.167-30.5t-30.5-12.167q-18 0-30.333 12.333l-268.333 268.667-268.333-268.667q-12.333-12.333-30.333-12.333-18.333 0-30.5 12.167t-12.167 30.5q0 18 12.333 30.333l268.667 268.333-268.667 268.333q-12.333 12.333-12.333 30.333 0 18.333 12.167 30.5t30.5 12.167q18 0 30.333-12.333l268.333-268.667 268.333 268.667q12.333 12.333 30.333 12.333z" />
<glyph unicode="&#xe129;" glyph-name="ellipsis" d="M853.333 554.667q53 0 90.5-37.5t37.5-90.5-37.5-90.5-90.5-37.5-90.5 37.5-37.5 90.5 37.5 90.5 90.5 37.5zM170.667 554.667q53 0 90.5-37.5t37.5-90.5-37.5-90.5-90.5-37.5-90.5 37.5-37.5 90.5 37.5 90.5 90.5 37.5zM170.667 469.334q-17.667 0-30.167-12.5t-12.5-30.167 12.5-30.167 30.167-12.5 30.167 12.5 12.5 30.167-12.5 30.167-30.167 12.5zM512 554.667q53 0 90.5-37.5t37.5-90.5-37.5-90.5-90.5-37.5-90.5 37.5-37.5 90.5 37.5 90.5 90.5 37.5zM512 469.334q-17.667 0-30.167-12.5t-12.5-30.167 12.5-30.167 30.167-12.5 30.167 12.5 12.5 30.167-12.5 30.167-30.167 12.5zM853.333 469.334q-17.667 0-30.167-12.5t-12.5-30.167 12.5-30.167 30.167-12.5 30.167 12.5 12.5 30.167-12.5 30.167-30.167 12.5z" />
<glyph unicode="&#xe900;" glyph-name="angle-down" d="M475.796 275.64l36.204-36.204 289.631 289.631-72.408 72.408-217.223-217.223-217.223 217.223-72.408-72.408z" />
<glyph unicode="&#xe901;" glyph-name="angle-left" d="M360.973 462.871l-36.204-36.204 289.631-289.631 72.408 72.408-217.223 217.223 217.223 217.223-72.408 72.408z" />
<glyph unicode="&#xe902;" glyph-name="angle-right" d="M663.027 390.463l36.204 36.204-289.631 289.631-72.408-72.408 217.223-217.223-217.223-217.223 72.408-72.408 253.427 253.427z" />
<glyph unicode="&#xe903;" glyph-name="angle-up" d="M548.204 577.694l-36.204 36.204-289.631-289.631 72.408-72.408 217.223 217.223 217.223-217.223 72.408 72.408z" />
<glyph unicode="&#xe904;" glyph-name="location-arrow" d="M442.368 123.648c14.891-44.757 43.136-46.336 63.061-3.669l226.517 485.333c19.925 42.752 1.451 61.184-41.259 41.259l-485.376-226.475c-42.709-19.925-41.088-48.171 3.627-63.104l175.061-58.325 58.368-175.019z" />
<glyph unicode="&#xe905;" glyph-name="info-large" d="M590.464 190.934c-0.256-0.085-23.851-7.936-44.331-7.936-11.307 0-15.872 2.347-17.323 3.371-7.168 4.992-20.48 14.336 2.304 59.733l42.667 85.077c25.301 50.517 29.056 99.371 10.453 137.6-15.189 31.275-44.331 52.736-81.92 60.416-13.525 2.773-27.264 4.139-40.875 4.139-78.891 0-132.011-46.080-134.229-48.043-7.637-6.741-9.429-17.92-4.352-26.709 5.12-8.789 15.659-12.8 25.387-9.472 0.213 0.085 23.851 7.979 44.331 7.979 11.221 0 15.744-2.347 17.152-3.328 7.211-5.035 20.565-14.507-2.176-59.819l-42.667-85.12c-25.344-50.56-29.056-99.413-10.453-137.6 15.189-31.275 44.288-52.736 81.963-60.416 13.397-2.688 27.136-4.139 40.704-4.139 78.933 0 132.096 46.080 134.315 48.043 7.637 6.699 9.429 17.92 4.352 26.709-5.12 8.747-15.744 12.672-25.301 9.515zM661.333 682.624c0-58.91-47.756-106.667-106.667-106.667s-106.667 47.756-106.667 106.667c0 58.91 47.756 106.667 106.667 106.667 58.91 0 106.667-47.756 106.667-106.667z" />
<glyph unicode="&#xe906;" glyph-name="sort-alphabetically" d="M464.853 232.406l-170.667 341.333c-14.464 28.928-61.867 28.928-76.331 0l-170.667-341.333c-10.539-21.077-2.005-46.72 19.072-57.259 21.12-10.581 46.72-1.963 57.259 19.072l30.848 61.781h203.264l30.891-61.739c7.467-14.976 22.528-23.595 38.187-23.595 6.4 0 12.928 1.451 19.029 4.48 21.077 10.581 29.653 36.181 19.115 57.259zM197.035 341.334l58.965 117.931 58.965-117.931h-117.931zM938.667 170.667h-256c-16.171 0-30.933 9.131-38.187 23.595s-5.632 31.744 4.053 44.672l204.8 273.067h-170.667c-23.552 0-42.667 19.115-42.667 42.667s19.115 42.667 42.667 42.667h256c16.171 0 30.933-9.131 38.187-23.595s5.632-31.744-4.053-44.672l-204.8-273.067h170.667c23.552 0 42.667-19.115 42.667-42.667s-19.115-42.667-42.667-42.667zM597.333 341.334h-85.333c-23.552 0-42.667 19.115-42.667 42.667s19.115 42.667 42.667 42.667h85.333c23.552 0 42.667-19.115 42.667-42.667s-19.115-42.667-42.667-42.667z" />
<glyph unicode="&#xe907;" glyph-name="th-large-outline" d="M384 853.334h-213.333c-47.061 0-85.333-38.229-85.333-85.333v-213.333c0-47.104 38.272-85.333 85.333-85.333h213.333c47.061 0 85.333 38.229 85.333 85.333v213.333c0 47.104-38.272 85.333-85.333 85.333zM384 554.667h-213.333v213.333h213.333v-213.333zM853.333 853.334h-213.333c-47.104 0-85.333-38.229-85.333-85.333v-213.333c0-47.104 38.229-85.333 85.333-85.333h213.333c47.104 0 85.333 38.229 85.333 85.333v213.333c0 47.104-38.229 85.333-85.333 85.333zM853.333 554.667h-213.333v213.333h213.333v-213.333zM384 384h-213.333c-47.061 0-85.333-38.229-85.333-85.333v-213.333c0-47.104 38.272-85.333 85.333-85.333h213.333c47.061 0 85.333 38.229 85.333 85.333v213.333c0 47.104-38.272 85.333-85.333 85.333zM384 85.334h-213.333v213.333h213.333v-213.333zM853.333 384h-213.333c-47.104 0-85.333-38.229-85.333-85.333v-213.333c0-47.104 38.229-85.333 85.333-85.333h213.333c47.104 0 85.333 38.229 85.333 85.333v213.333c0 47.104-38.229 85.333-85.333 85.333zM853.333 85.334h-213.333v213.333h213.333v-213.333z" />
<glyph unicode="&#xe908;" glyph-name="equals-outline" d="M768 426.667h-512c-70.571 0-128 57.429-128 128s57.429 128 128 128h512c70.571 0 128-57.429 128-128s-57.429-128-128-128zM256 597.334c-23.552 0-42.667-19.157-42.667-42.667s19.115-42.667 42.667-42.667h512c23.552 0 42.667 19.157 42.667 42.667s-19.115 42.667-42.667 42.667h-512zM768 128h-512c-70.571 0-128 57.429-128 128s57.429 128 128 128h512c70.571 0 128-57.429 128-128s-57.429-128-128-128zM256 298.667c-23.552 0-42.667-19.157-42.667-42.667s19.115-42.667 42.667-42.667h512c23.552 0 42.667 19.157 42.667 42.667s-19.115 42.667-42.667 42.667h-512z" />
<glyph unicode="&#xf099;" glyph-name="twitter" horiz-adv-x="951" d="M925.714 717.714q-38.286-56-92.571-95.429 0.571-8 0.571-24 0-74.286-21.714-148.286t-66-142-105.429-120.286-147.429-83.429-184.571-31.143q-154.857 0-283.429 82.857 20-2.286 44.571-2.286 128.571 0 229.143 78.857-60 1.143-107.429 36.857t-65.143 91.143q18.857-2.857 34.857-2.857 24.571 0 48.571 6.286-64 13.143-106 63.714t-42 117.429v2.286q38.857-21.714 83.429-23.429-37.714 25.143-60 65.714t-22.286 88q0 50.286 25.143 93.143 69.143-85.143 168.286-136.286t212.286-56.857q-4.571 21.714-4.571 42.286 0 76.571 54 130.571t130.571 54q80 0 134.857-58.286 62.286 12 117.143 44.571-21.143-65.714-81.143-101.714 53.143 5.714 106.286 28.571z" />
<glyph unicode="&#xf09a;" glyph-name="facebook" horiz-adv-x="602" d="M548 944v-150.857h-89.714q-49.143 0-66.286-20.571t-17.143-61.714v-108h167.429l-22.286-169.143h-145.143v-433.714h-174.857v433.714h-145.714v169.143h145.714v124.571q0 106.286 59.429 164.857t158.286 58.571q84 0 130.286-6.857z" />
<glyph unicode="&#xf0e1;" glyph-name="linkedin" horiz-adv-x="878" d="M199.429 593.714v-566.286h-188.571v566.286h188.571zM211.429 768.571q0.571-41.714-28.857-69.714t-77.429-28h-1.143q-46.857 0-75.429 28t-28.571 69.714q0 42.286 29.429 70t76.857 27.714 76-27.714 29.143-70zM877.714 352v-324.571h-188v302.857q0 60-23.143 94t-72.286 34q-36 0-60.286-19.714t-36.286-48.857q-6.286-17.143-6.286-46.286v-316h-188q1.143 228 1.143 369.714t-0.571 169.143l-0.571 27.429h188v-82.286h-1.143q11.429 18.286 23.429 32t32.286 29.714 49.714 24.857 65.429 8.857q97.714 0 157.143-64.857t59.429-190z" />
<glyph unicode="&#xf16d;" glyph-name="instagram" horiz-adv-x="878" d="M585.143 438.857q0 60.571-42.857 103.429t-103.429 42.857-103.429-42.857-42.857-103.429 42.857-103.429 103.429-42.857 103.429 42.857 42.857 103.429zM664 438.857q0-93.714-65.714-159.429t-159.429-65.714-159.429 65.714-65.714 159.429 65.714 159.429 159.429 65.714 159.429-65.714 65.714-159.429zM725.714 673.143q0-21.714-15.429-37.143t-37.143-15.429-37.143 15.429-15.429 37.143 15.429 37.143 37.143 15.429 37.143-15.429 15.429-37.143zM438.857 798.857q-4 0-43.714 0.286t-60.286 0-55.143-1.714-58.857-5.714-40.857-10.571q-28.571-11.429-50.286-33.143t-33.143-50.286q-6.286-16.571-10.571-40.857t-5.714-58.857-1.714-55.143 0-60.286 0.286-43.714-0.286-43.714 0-60.286 1.714-55.143 5.714-58.857 10.571-40.857q11.429-28.571 33.143-50.286t50.286-33.143q16.571-6.286 40.857-10.571t58.857-5.714 55.143-1.714 60.286 0 43.714 0.286 43.714-0.286 60.286 0 55.143 1.714 58.857 5.714 40.857 10.571q28.571 11.429 50.286 33.143t33.143 50.286q6.286 16.571 10.571 40.857t5.714 58.857 1.714 55.143 0 60.286-0.286 43.714 0.286 43.714 0 60.286-1.714 55.143-5.714 58.857-10.571 40.857q-11.429 28.571-33.143 50.286t-50.286 33.143q-16.571 6.286-40.857 10.571t-58.857 5.714-55.143 1.714-60.286 0-43.714-0.286zM877.714 438.857q0-130.857-2.857-181.143-5.714-118.857-70.857-184t-184-70.857q-50.286-2.857-181.143-2.857t-181.143 2.857q-118.857 5.714-184 70.857t-70.857 184q-2.857 50.286-2.857 181.143t2.857 181.143q5.714 118.857 70.857 184t184 70.857q50.286 2.857 181.143 2.857t181.143-2.857q118.857-5.714 184-70.857t70.857-184q2.857-50.286 2.857-181.143z" />
<glyph unicode="&#xf231;" glyph-name="pinterest" horiz-adv-x="731" d="M0 609.714q0 61.714 21.429 116.286t59.143 95.143 86.857 70.286 105.714 44.571 115.429 14.857q90.286 0 168-38t126.286-110.571 48.571-164q0-54.857-10.857-107.429t-34.286-101.143-57.143-85.429-82.857-58.857-108-22q-38.857 0-77.143 18.286t-54.857 50.286q-5.714-22.286-16-64.286t-13.429-54.286-11.714-40.571-14.857-40.571-18.286-35.714-26.286-44.286-35.429-49.429l-8-2.857-5.143 5.714q-8.571 89.714-8.571 107.429 0 52.571 12.286 118t38 164.286 29.714 116q-18.286 37.143-18.286 96.571 0 47.429 29.714 89.143t75.429 41.714q34.857 0 54.286-23.143t19.429-58.571q0-37.714-25.143-109.143t-25.143-106.857q0-36 25.714-59.714t62.286-23.714q31.429 0 58.286 14.286t44.857 38.857 32 54.286 21.714 63.143 11.429 63.429 3.714 56.857q0 98.857-62.571 154t-163.143 55.143q-114.286 0-190.857-74t-76.571-187.714q0-25.143 7.143-48.571t15.429-37.143 15.429-26 7.143-17.429q0-16-8.571-41.714t-21.143-25.714q-1.143 0-9.714 1.714-29.143 8.571-51.714 32t-34.857 54-18.571 61.714-6.286 60.857z" />
</font></defs></svg>